memory.vcd
$comment Generated by Amaranth $end
$date 2025-11-20 14:31:00.529808 $end
$timescale 1 fs $end
$scope module bench $end
$scope module top $end
$var wire 1 ! clk $end
$var wire 1 " rst $end
$var wire 8 # wr_port__addr $end
$var wire 32 $ write_addr $end
$var wire 32 % wr_port__data $end
$var wire 32 & write_data $end
$var wire 1 ' wr_port__en $end
$var wire 1 ( write_enable $end
$var wire 8 ) rd_port__addr $end
$var wire 32 * read_addr $end
$var wire 32 + read_data $end
$var wire 32 , rd_port__data $end
$var wire 32 . \mem[0] $end
$var wire 32 / \mem[1] $end
$var wire 32 0 \mem[2] $end
$var wire 32 1 \mem[3] $end
$var wire 32 2 \mem[4] $end
$var wire 32 3 \mem[5] $end
$var wire 32 4 \mem[6] $end
$var wire 32 5 \mem[7] $end
$var wire 32 6 \mem[8] $end
$var wire 32 7 \mem[9] $end
$var wire 32 8 \mem[10] $end
$var wire 32 9 \mem[11] $end
$var wire 32 : \mem[12] $end
$var wire 32 ; \mem[13] $end
$var wire 32 < \mem[14] $end
$var wire 32 = \mem[15] $end
$var wire 32 > \mem[16] $end
$var wire 32 ? \mem[17] $end
$var wire 32 @ \mem[18] $end
$var wire 32 A \mem[19] $end
$var wire 32 B \mem[20] $end
$var wire 32 C \mem[21] $end
$var wire 32 D \mem[22] $end
$var wire 32 E \mem[23] $end
$var wire 32 F \mem[24] $end
$var wire 32 G \mem[25] $end
$var wire 32 H \mem[26] $end
$var wire 32 I \mem[27] $end
$var wire 32 J \mem[28] $end
$var wire 32 K \mem[29] $end
$var wire 32 L \mem[30] $end
$var wire 32 M \mem[31] $end
$var wire 32 N \mem[32] $end
$var wire 32 O \mem[33] $end
$var wire 32 P \mem[34] $end
$var wire 32 Q \mem[35] $end
$var wire 32 R \mem[36] $end
$var wire 32 S \mem[37] $end
$var wire 32 T \mem[38] $end
$var wire 32 U \mem[39] $end
$var wire 32 V \mem[40] $end
$var wire 32 W \mem[41] $end
$var wire 32 X \mem[42] $end
$var wire 32 Y \mem[43] $end
$var wire 32 Z \mem[44] $end
$var wire 32 [ \mem[45] $end
$var wire 32 \ \mem[46] $end
$var wire 32 ] \mem[47] $end
$var wire 32 ^ \mem[48] $end
$var wire 32 _ \mem[49] $end
$var wire 32 ` \mem[50] $end
$var wire 32 a \mem[51] $end
$var wire 32 b \mem[52] $end
$var wire 32 c \mem[53] $end
$var wire 32 d \mem[54] $end
$var wire 32 e \mem[55] $end
$var wire 32 f \mem[56] $end
$var wire 32 g \mem[57] $end
$var wire 32 h \mem[58] $end
$var wire 32 i \mem[59] $end
$var wire 32 j \mem[60] $end
$var wire 32 k \mem[61] $end
$var wire 32 l \mem[62] $end
$var wire 32 m \mem[63] $end
$var wire 32 n \mem[64] $end
$var wire 32 o \mem[65] $end
$var wire 32 p \mem[66] $end
$var wire 32 q \mem[67] $end
$var wire 32 r \mem[68] $end
$var wire 32 s \mem[69] $end
$var wire 32 t \mem[70] $end
$var wire 32 u \mem[71] $end
$var wire 32 v \mem[72] $end
$var wire 32 w \mem[73] $end
$var wire 32 x \mem[74] $end
$var wire 32 y \mem[75] $end
$var wire 32 z \mem[76] $end
$var wire 32 { \mem[77] $end
$var wire 32 | \mem[78] $end
$var wire 32 } \mem[79] $end
$var wire 32 ~ \mem[80] $end
$var wire 32 !! \mem[81] $end
$var wire 32 "! \mem[82] $end
$var wire 32 #! \mem[83] $end
$var wire 32 $! \mem[84] $end
$var wire 32 %! \mem[85] $end
$var wire 32 &! \mem[86] $end
$var wire 32 '! \mem[87] $end
$var wire 32 (! \mem[88] $end
$var wire 32 )! \mem[89] $end
$var wire 32 *! \mem[90] $end
$var wire 32 +! \mem[91] $end
$var wire 32 ,! \mem[92] $end
$var wire 32 -! \mem[93] $end
$var wire 32 .! \mem[94] $end
$var wire 32 /! \mem[95] $end
$var wire 32 0! \mem[96] $end
$var wire 32 1! \mem[97] $end
$var wire 32 2! \mem[98] $end
$var wire 32 3! \mem[99] $end
$var wire 32 4! \mem[100] $end
$var wire 32 5! \mem[101] $end
$var wire 32 6! \mem[102] $end
$var wire 32 7! \mem[103] $end
$var wire 32 8! \mem[104] $end
$var wire 32 9! \mem[105] $end
$var wire 32 :! \mem[106] $end
$var wire 32 ;! \mem[107] $end
$var wire 32 <! \mem[108] $end
$var wire 32 =! \mem[109] $end
$var wire 32 >! \mem[110] $end
$var wire 32 ?! \mem[111] $end
$var wire 32 @! \mem[112] $end
$var wire 32 A! \mem[113] $end
$var wire 32 B! \mem[114] $end
$var wire 32 C! \mem[115] $end
$var wire 32 D! \mem[116] $end
$var wire 32 E! \mem[117] $end
$var wire 32 F! \mem[118] $end
$var wire 32 G! \mem[119] $end
$var wire 32 H! \mem[120] $end
$var wire 32 I! \mem[121] $end
$var wire 32 J! \mem[122] $end
$var wire 32 K! \mem[123] $end
$var wire 32 L! \mem[124] $end
$var wire 32 M! \mem[125] $end
$var wire 32 N! \mem[126] $end
$var wire 32 O! \mem[127] $end
$var wire 32 P! \mem[128] $end
$var wire 32 Q! \mem[129] $end
$var wire 32 R! \mem[130] $end
$var wire 32 S! \mem[131] $end
$var wire 32 T! \mem[132] $end
$var wire 32 U! \mem[133] $end
$var wire 32 V! \mem[134] $end
$var wire 32 W! \mem[135] $end
$var wire 32 X! \mem[136] $end
$var wire 32 Y! \mem[137] $end
$var wire 32 Z! \mem[138] $end
$var wire 32 [! \mem[139] $end
$var wire 32 \! \mem[140] $end
$var wire 32 ]! \mem[141] $end
$var wire 32 ^! \mem[142] $end
$var wire 32 _! \mem[143] $end
$var wire 32 `! \mem[144] $end
$var wire 32 a! \mem[145] $end
$var wire 32 b! \mem[146] $end
$var wire 32 c! \mem[147] $end
$var wire 32 d! \mem[148] $end
$var wire 32 e! \mem[149] $end
$var wire 32 f! \mem[150] $end
$var wire 32 g! \mem[151] $end
$var wire 32 h! \mem[152] $end
$var wire 32 i! \mem[153] $end
$var wire 32 j! \mem[154] $end
$var wire 32 k! \mem[155] $end
$var wire 32 l! \mem[156] $end
$var wire 32 m! \mem[157] $end
$var wire 32 n! \mem[158] $end
$var wire 32 o! \mem[159] $end
$var wire 32 p! \mem[160] $end
$var wire 32 q! \mem[161] $end
$var wire 32 r! \mem[162] $end
$var wire 32 s! \mem[163] $end
$var wire 32 t! \mem[164] $end
$var wire 32 u! \mem[165] $end
$var wire 32 v! \mem[166] $end
$var wire 32 w! \mem[167] $end
$var wire 32 x! \mem[168] $end
$var wire 32 y! \mem[169] $end
$var wire 32 z! \mem[170] $end
$var wire 32 {! \mem[171] $end
$var wire 32 |! \mem[172] $end
$var wire 32 }! \mem[173] $end
$var wire 32 ~! \mem[174] $end
$var wire 32 !" \mem[175] $end
$var wire 32 "" \mem[176] $end
$var wire 32 #" \mem[177] $end
$var wire 32 $" \mem[178] $end
$var wire 32 %" \mem[179] $end
$var wire 32 &" \mem[180] $end
$var wire 32 '" \mem[181] $end
$var wire 32 (" \mem[182] $end
$var wire 32 )" \mem[183] $end
$var wire 32 *" \mem[184] $end
$var wire 32 +" \mem[185] $end
$var wire 32 ," \mem[186] $end
$var wire 32 -" \mem[187] $end
$var wire 32 ." \mem[188] $end
$var wire 32 /" \mem[189] $end
$var wire 32 0" \mem[190] $end
$var wire 32 1" \mem[191] $end
$var wire 32 2" \mem[192] $end
$var wire 32 3" \mem[193] $end
$var wire 32 4" \mem[194] $end
$var wire 32 5" \mem[195] $end
$var wire 32 6" \mem[196] $end
$var wire 32 7" \mem[197] $end
$var wire 32 8" \mem[198] $end
$var wire 32 9" \mem[199] $end
$var wire 32 :" \mem[200] $end
$var wire 32 ;" \mem[201] $end
$var wire 32 <" \mem[202] $end
$var wire 32 =" \mem[203] $end
$var wire 32 >" \mem[204] $end
$var wire 32 ?" \mem[205] $end
$var wire 32 @" \mem[206] $end
$var wire 32 A" \mem[207] $end
$var wire 32 B" \mem[208] $end
$var wire 32 C" \mem[209] $end
$var wire 32 D" \mem[210] $end
$var wire 32 E" \mem[211] $end
$var wire 32 F" \mem[212] $end
$var wire 32 G" \mem[213] $end
$var wire 32 H" \mem[214] $end
$var wire 32 I" \mem[215] $end
$var wire 32 J" \mem[216] $end
$var wire 32 K" \mem[217] $end
$var wire 32 L" \mem[218] $end
$var wire 32 M" \mem[219] $end
$var wire 32 N" \mem[220] $end
$var wire 32 O" \mem[221] $end
$var wire 32 P" \mem[222] $end
$var wire 32 Q" \mem[223] $end
$var wire 32 R" \mem[224] $end
$var wire 32 S" \mem[225] $end
$var wire 32 T" \mem[226] $end
$var wire 32 U" \mem[227] $end
$var wire 32 V" \mem[228] $end
$var wire 32 W" \mem[229] $end
$var wire 32 X" \mem[230] $end
$var wire 32 Y" \mem[231] $end
$var wire 32 Z" \mem[232] $end
$var wire 32 [" \mem[233] $end
$var wire 32 \" \mem[234] $end
$var wire 32 ]" \mem[235] $end
$var wire 32 ^" \mem[236] $end
$var wire 32 _" \mem[237] $end
$var wire 32 `" \mem[238] $end
$var wire 32 a" \mem[239] $end
$var wire 32 b" \mem[240] $end
$var wire 32 c" \mem[241] $end
$var wire 32 d" \mem[242] $end
$var wire 32 e" \mem[243] $end
$var wire 32 f" \mem[244] $end
$var wire 32 g" \mem[245] $end
$var wire 32 h" \mem[246] $end
$var wire 32 i" \mem[247] $end
$var wire 32 j" \mem[248] $end
$var wire 32 k" \mem[249] $end
$var wire 32 l" \mem[250] $end
$var wire 32 m" \mem[251] $end
$var wire 32 n" \mem[252] $end
$var wire 32 o" \mem[253] $end
$var wire 32 p" \mem[254] $end
$var wire 32 q" \mem[255] $end
$scope module mem $end
$var wire 1 ! clk $end
$var wire 1 " rst $end
$var wire 8 # wr_port__addr $end
$var wire 32 % wr_port__data $end
$var wire 1 ' wr_port__en $end
$var wire 8 ) rd_port__addr $end
$var wire 32 , rd_port__data $end
$var wire 1 - rd_port__en $end
$upscope $end
$upscope $end
$upscope $end
$enddefinitions $end
#0
$dumpvars
0!
0"
b10000 #
b10000 $
b11011110101011011011111011101111 %
b11011110101011011011111011101111 &
1'
1(
b10000 )
b10000 *
b0 +
b0 ,
1-
b0 .
b0 /
b0 0
b0 1
b0 2
b0 3
b0 4
b0 5
b0 6
b0 7
b0 8
b0 9
b0 :
b0 ;
b0 <
b0 =
b0 >
b0 ?
b0 @
b0 A
b0 B
b0 C
b0 D
b0 E
b0 F
b0 G
b0 H
b0 I
b0 J
b0 K
b0 L
b0 M
b0 N
b0 O
b0 P
b0 Q
b0 R
b0 S
b0 T
b0 U
b0 V
b0 W
b0 X
b0 Y
b0 Z
b0 [
b0 \
b0 ]
b0 ^
b0 _
b0 `
b0 a
b0 b
b0 c
b0 d
b0 e
b0 f
b0 g
b0 h
b0 i
b0 j
b0 k
b0 l
b0 m
b0 n
b0 o
b0 p
b0 q
b0 r
b0 s
b0 t
b0 u
b0 v
b0 w
b0 x
b0 y
b0 z
b0 {
b0 |
b0 }
b0 ~
b0 !!
b0 "!
b0 #!
b0 $!
b0 %!
b0 &!
b0 '!
b0 (!
b0 )!
b0 *!
b0 +!
b0 ,!
b0 -!
b0 .!
b0 /!
b0 0!
b0 1!
b0 2!
b0 3!
b0 4!
b0 5!
b0 6!
b0 7!
b0 8!
b0 9!
b0 :!
b0 ;!
b0 <!
b0 =!
b0 >!
b0 ?!
b0 @!
b0 A!
b0 B!
b0 C!
b0 D!
b0 E!
b0 F!
b0 G!
b0 H!
b0 I!
b0 J!
b0 K!
b0 L!
b0 M!
b0 N!
b0 O!
b0 P!
b0 Q!
b0 R!
b0 S!
b0 T!
b0 U!
b0 V!
b0 W!
b0 X!
b0 Y!
b0 Z!
b0 [!
b0 \!
b0 ]!
b0 ^!
b0 _!
b0 `!
b0 a!
b0 b!
b0 c!
b0 d!
b0 e!
b0 f!
b0 g!
b0 h!
b0 i!
b0 j!
b0 k!
b0 l!
b0 m!
b0 n!
b0 o!
b0 p!
b0 q!
b0 r!
b0 s!
b0 t!
b0 u!
b0 v!
b0 w!
b0 x!
b0 y!
b0 z!
b0 {!
b0 |!
b0 }!
b0 ~!
b0 !"
b0 ""
b0 #"
b0 $"
b0 %"
b0 &"
b0 '"
b0 ("
b0 )"
b0 *"
b0 +"
b0 ,"
b0 -"
b0 ."
b0 /"
b0 0"
b0 1"
b0 2"
b0 3"
b0 4"
b0 5"
b0 6"
b0 7"
b0 8"
b0 9"
b0 :"
b0 ;"
b0 <"
b0 ="
b0 >"
b0 ?"
b0 @"
b0 A"
b0 B"
b0 C"
b0 D"
b0 E"
b0 F"
b0 G"
b0 H"
b0 I"
b0 J"
b0 K"
b0 L"
b0 M"
b0 N"
b0 O"
b0 P"
b0 Q"
b0 R"
b0 S"
b0 T"
b0 U"
b0 V"
b0 W"
b0 X"
b0 Y"
b0 Z"
b0 ["
b0 \"
b0 ]"
b0 ^"
b0 _"
b0 `"
b0 a"
b0 b"
b0 c"
b0 d"
b0 e"
b0 f"
b0 g"
b0 h"
b0 i"
b0 j"
b0 k"
b0 l"
b0 m"
b0 n"
b0 o"
b0 p"
b0 q"
$end
#500000000
1!
b11011110101011011011111011101111 >
b11011110101011011011111011101111 ,
b11011110101011011011111011101111 +
b100000 *
b100000 )
b100000 $
b100000 #
b10010001101000101011001111000 &
b10010001101000101011001111000 %
#1000000000
0!
#1500000000
1!
b10010001101000101011001111000 ,
b10010001101000101011001111000 N
b10010001101000101011001111000 +
b10101010101010101010101010101010 &
b10101010101010101010101010101010 %
0(
0'
#2000000000
0!
#2500000000
1!
b0 $
b0 #
b1 &
b1 %
1(
1'
#3000000000
0!
#3500000000
1!
b1 .
b10000 $
b10000 #
b10001000100010001000100010001 &
b10001000100010001000100010001 %
#4000000000
0!
#4500000000
1!
b10001000100010001000100010001 >
b100000 $
b100000 #
b100010001000100010001000100010 &
b100010001000100010001000100010 %
#5000000000
0!
#5500000000
1!
b100010001000100010001000100010 N
b100010001000100010001000100010 ,
b100010001000100010001000100010 +
b110000 $
b110000 #
b110011001100110011001100110011 &
b110011001100110011001100110011 %
#6000000000
0!
#6500000000
1!
b110011001100110011001100110011 ^
b11111111 $
b11111111 #
b11111111111111111111111111111111 &
b11111111111111111111111111111111 %
#7000000000
0!
#7500000000
1!
b11111111111111111111111111111111 q"
0(
0'
b0 *
b0 )
#8000000000
0!
#8500000000
1!
b1 ,
b1 +
b10000 *
b10000 )
#9000000000
0!
#9500000000
1!
b10001000100010001000100010001 ,
b10001000100010001000100010001 +
b100000 *
b100000 )
#10000000000
0!
#10500000000
1!
b100010001000100010001000100010 ,
b100010001000100010001000100010 +
b110000 *
b110000 )
#11000000000
0!
#11500000000
1!
b110011001100110011001100110011 ,
b110011001100110011001100110011 +
b11111111 *
b11111111 )
#12000000000
0!
#12500000000
1!
b11111111111111111111111111111111 ,
b11111111111111111111111111111111 +
b1010000 *
b1010000 )
b1010000 $
b1010000 #
b11001010111111101011101010111110 &
b11001010111111101011101010111110 %
1(
1'
#13000000000
0!
#13500000000
1!
b11001010111111101011101010111110 ~
b11001010111111101011101010111110 ,
b11001010111111101011101010111110 +
b1000010 $
b1000010 #
b10111110111011111100101011111110 &
b10111110111011111100101011111110 %
#14000000000
0!
#14500000000
1!
b10111110111011111100101011111110 p
b1000011 $
b1000011 #
b10011001100110011001100110011001 &
b10011001100110011001100110011001 %
#15000000000
0!
#15500000000
1!
b10011001100110011001100110011001 q
b1000010 *
b1000010 )
0(
0'
#16000000000
0!
#16500000000
1!
b10111110111011111100101011111110 ,
b10111110111011111100101011111110 +
b1100000 $
b1100000 #
b10001001000100011001101000100 &
b10001001000100011001101000100 %
1(
1'
#17000000000
0!
#17500000000
1!
b10001001000100011001101000100 0!
b1100000 *
b1100000 )
0(
0'
#18000000000
0!
#18500000000
1!
b10001001000100011001101000100 ,
b10001001000100011001101000100 +
