memory.vcd
$comment Generated by Amaranth $end
$date 2025-11-11 15:24:00.512941 $end
$timescale 1 fs $end
$scope module bench $end
$scope module top $end
$var wire 1 ! clk $end
$var wire 1 " rst $end
$var wire 8 # wr_port__addr $end
$var wire 32 $ addr $end
$var wire 32 % wr_port__data $end
$var wire 32 & write_data $end
$var wire 1 ' wr_port__en $end
$var wire 1 ( write_enable $end
$var wire 8 ) rd_port__addr $end
$var wire 32 * read_data $end
$var wire 32 + rd_port__data $end
$var wire 32 - \mem[0] $end
$var wire 32 . \mem[1] $end
$var wire 32 / \mem[2] $end
$var wire 32 0 \mem[3] $end
$var wire 32 1 \mem[4] $end
$var wire 32 2 \mem[5] $end
$var wire 32 3 \mem[6] $end
$var wire 32 4 \mem[7] $end
$var wire 32 5 \mem[8] $end
$var wire 32 6 \mem[9] $end
$var wire 32 7 \mem[10] $end
$var wire 32 8 \mem[11] $end
$var wire 32 9 \mem[12] $end
$var wire 32 : \mem[13] $end
$var wire 32 ; \mem[14] $end
$var wire 32 < \mem[15] $end
$var wire 32 = \mem[16] $end
$var wire 32 > \mem[17] $end
$var wire 32 ? \mem[18] $end
$var wire 32 @ \mem[19] $end
$var wire 32 A \mem[20] $end
$var wire 32 B \mem[21] $end
$var wire 32 C \mem[22] $end
$var wire 32 D \mem[23] $end
$var wire 32 E \mem[24] $end
$var wire 32 F \mem[25] $end
$var wire 32 G \mem[26] $end
$var wire 32 H \mem[27] $end
$var wire 32 I \mem[28] $end
$var wire 32 J \mem[29] $end
$var wire 32 K \mem[30] $end
$var wire 32 L \mem[31] $end
$var wire 32 M \mem[32] $end
$var wire 32 N \mem[33] $end
$var wire 32 O \mem[34] $end
$var wire 32 P \mem[35] $end
$var wire 32 Q \mem[36] $end
$var wire 32 R \mem[37] $end
$var wire 32 S \mem[38] $end
$var wire 32 T \mem[39] $end
$var wire 32 U \mem[40] $end
$var wire 32 V \mem[41] $end
$var wire 32 W \mem[42] $end
$var wire 32 X \mem[43] $end
$var wire 32 Y \mem[44] $end
$var wire 32 Z \mem[45] $end
$var wire 32 [ \mem[46] $end
$var wire 32 \ \mem[47] $end
$var wire 32 ] \mem[48] $end
$var wire 32 ^ \mem[49] $end
$var wire 32 _ \mem[50] $end
$var wire 32 ` \mem[51] $end
$var wire 32 a \mem[52] $end
$var wire 32 b \mem[53] $end
$var wire 32 c \mem[54] $end
$var wire 32 d \mem[55] $end
$var wire 32 e \mem[56] $end
$var wire 32 f \mem[57] $end
$var wire 32 g \mem[58] $end
$var wire 32 h \mem[59] $end
$var wire 32 i \mem[60] $end
$var wire 32 j \mem[61] $end
$var wire 32 k \mem[62] $end
$var wire 32 l \mem[63] $end
$var wire 32 m \mem[64] $end
$var wire 32 n \mem[65] $end
$var wire 32 o \mem[66] $end
$var wire 32 p \mem[67] $end
$var wire 32 q \mem[68] $end
$var wire 32 r \mem[69] $end
$var wire 32 s \mem[70] $end
$var wire 32 t \mem[71] $end
$var wire 32 u \mem[72] $end
$var wire 32 v \mem[73] $end
$var wire 32 w \mem[74] $end
$var wire 32 x \mem[75] $end
$var wire 32 y \mem[76] $end
$var wire 32 z \mem[77] $end
$var wire 32 { \mem[78] $end
$var wire 32 | \mem[79] $end
$var wire 32 } \mem[80] $end
$var wire 32 ~ \mem[81] $end
$var wire 32 !! \mem[82] $end
$var wire 32 "! \mem[83] $end
$var wire 32 #! \mem[84] $end
$var wire 32 $! \mem[85] $end
$var wire 32 %! \mem[86] $end
$var wire 32 &! \mem[87] $end
$var wire 32 '! \mem[88] $end
$var wire 32 (! \mem[89] $end
$var wire 32 )! \mem[90] $end
$var wire 32 *! \mem[91] $end
$var wire 32 +! \mem[92] $end
$var wire 32 ,! \mem[93] $end
$var wire 32 -! \mem[94] $end
$var wire 32 .! \mem[95] $end
$var wire 32 /! \mem[96] $end
$var wire 32 0! \mem[97] $end
$var wire 32 1! \mem[98] $end
$var wire 32 2! \mem[99] $end
$var wire 32 3! \mem[100] $end
$var wire 32 4! \mem[101] $end
$var wire 32 5! \mem[102] $end
$var wire 32 6! \mem[103] $end
$var wire 32 7! \mem[104] $end
$var wire 32 8! \mem[105] $end
$var wire 32 9! \mem[106] $end
$var wire 32 :! \mem[107] $end
$var wire 32 ;! \mem[108] $end
$var wire 32 <! \mem[109] $end
$var wire 32 =! \mem[110] $end
$var wire 32 >! \mem[111] $end
$var wire 32 ?! \mem[112] $end
$var wire 32 @! \mem[113] $end
$var wire 32 A! \mem[114] $end
$var wire 32 B! \mem[115] $end
$var wire 32 C! \mem[116] $end
$var wire 32 D! \mem[117] $end
$var wire 32 E! \mem[118] $end
$var wire 32 F! \mem[119] $end
$var wire 32 G! \mem[120] $end
$var wire 32 H! \mem[121] $end
$var wire 32 I! \mem[122] $end
$var wire 32 J! \mem[123] $end
$var wire 32 K! \mem[124] $end
$var wire 32 L! \mem[125] $end
$var wire 32 M! \mem[126] $end
$var wire 32 N! \mem[127] $end
$var wire 32 O! \mem[128] $end
$var wire 32 P! \mem[129] $end
$var wire 32 Q! \mem[130] $end
$var wire 32 R! \mem[131] $end
$var wire 32 S! \mem[132] $end
$var wire 32 T! \mem[133] $end
$var wire 32 U! \mem[134] $end
$var wire 32 V! \mem[135] $end
$var wire 32 W! \mem[136] $end
$var wire 32 X! \mem[137] $end
$var wire 32 Y! \mem[138] $end
$var wire 32 Z! \mem[139] $end
$var wire 32 [! \mem[140] $end
$var wire 32 \! \mem[141] $end
$var wire 32 ]! \mem[142] $end
$var wire 32 ^! \mem[143] $end
$var wire 32 _! \mem[144] $end
$var wire 32 `! \mem[145] $end
$var wire 32 a! \mem[146] $end
$var wire 32 b! \mem[147] $end
$var wire 32 c! \mem[148] $end
$var wire 32 d! \mem[149] $end
$var wire 32 e! \mem[150] $end
$var wire 32 f! \mem[151] $end
$var wire 32 g! \mem[152] $end
$var wire 32 h! \mem[153] $end
$var wire 32 i! \mem[154] $end
$var wire 32 j! \mem[155] $end
$var wire 32 k! \mem[156] $end
$var wire 32 l! \mem[157] $end
$var wire 32 m! \mem[158] $end
$var wire 32 n! \mem[159] $end
$var wire 32 o! \mem[160] $end
$var wire 32 p! \mem[161] $end
$var wire 32 q! \mem[162] $end
$var wire 32 r! \mem[163] $end
$var wire 32 s! \mem[164] $end
$var wire 32 t! \mem[165] $end
$var wire 32 u! \mem[166] $end
$var wire 32 v! \mem[167] $end
$var wire 32 w! \mem[168] $end
$var wire 32 x! \mem[169] $end
$var wire 32 y! \mem[170] $end
$var wire 32 z! \mem[171] $end
$var wire 32 {! \mem[172] $end
$var wire 32 |! \mem[173] $end
$var wire 32 }! \mem[174] $end
$var wire 32 ~! \mem[175] $end
$var wire 32 !" \mem[176] $end
$var wire 32 "" \mem[177] $end
$var wire 32 #" \mem[178] $end
$var wire 32 $" \mem[179] $end
$var wire 32 %" \mem[180] $end
$var wire 32 &" \mem[181] $end
$var wire 32 '" \mem[182] $end
$var wire 32 (" \mem[183] $end
$var wire 32 )" \mem[184] $end
$var wire 32 *" \mem[185] $end
$var wire 32 +" \mem[186] $end
$var wire 32 ," \mem[187] $end
$var wire 32 -" \mem[188] $end
$var wire 32 ." \mem[189] $end
$var wire 32 /" \mem[190] $end
$var wire 32 0" \mem[191] $end
$var wire 32 1" \mem[192] $end
$var wire 32 2" \mem[193] $end
$var wire 32 3" \mem[194] $end
$var wire 32 4" \mem[195] $end
$var wire 32 5" \mem[196] $end
$var wire 32 6" \mem[197] $end
$var wire 32 7" \mem[198] $end
$var wire 32 8" \mem[199] $end
$var wire 32 9" \mem[200] $end
$var wire 32 :" \mem[201] $end
$var wire 32 ;" \mem[202] $end
$var wire 32 <" \mem[203] $end
$var wire 32 =" \mem[204] $end
$var wire 32 >" \mem[205] $end
$var wire 32 ?" \mem[206] $end
$var wire 32 @" \mem[207] $end
$var wire 32 A" \mem[208] $end
$var wire 32 B" \mem[209] $end
$var wire 32 C" \mem[210] $end
$var wire 32 D" \mem[211] $end
$var wire 32 E" \mem[212] $end
$var wire 32 F" \mem[213] $end
$var wire 32 G" \mem[214] $end
$var wire 32 H" \mem[215] $end
$var wire 32 I" \mem[216] $end
$var wire 32 J" \mem[217] $end
$var wire 32 K" \mem[218] $end
$var wire 32 L" \mem[219] $end
$var wire 32 M" \mem[220] $end
$var wire 32 N" \mem[221] $end
$var wire 32 O" \mem[222] $end
$var wire 32 P" \mem[223] $end
$var wire 32 Q" \mem[224] $end
$var wire 32 R" \mem[225] $end
$var wire 32 S" \mem[226] $end
$var wire 32 T" \mem[227] $end
$var wire 32 U" \mem[228] $end
$var wire 32 V" \mem[229] $end
$var wire 32 W" \mem[230] $end
$var wire 32 X" \mem[231] $end
$var wire 32 Y" \mem[232] $end
$var wire 32 Z" \mem[233] $end
$var wire 32 [" \mem[234] $end
$var wire 32 \" \mem[235] $end
$var wire 32 ]" \mem[236] $end
$var wire 32 ^" \mem[237] $end
$var wire 32 _" \mem[238] $end
$var wire 32 `" \mem[239] $end
$var wire 32 a" \mem[240] $end
$var wire 32 b" \mem[241] $end
$var wire 32 c" \mem[242] $end
$var wire 32 d" \mem[243] $end
$var wire 32 e" \mem[244] $end
$var wire 32 f" \mem[245] $end
$var wire 32 g" \mem[246] $end
$var wire 32 h" \mem[247] $end
$var wire 32 i" \mem[248] $end
$var wire 32 j" \mem[249] $end
$var wire 32 k" \mem[250] $end
$var wire 32 l" \mem[251] $end
$var wire 32 m" \mem[252] $end
$var wire 32 n" \mem[253] $end
$var wire 32 o" \mem[254] $end
$var wire 32 p" \mem[255] $end
$scope module mem $end
$var wire 1 ! clk $end
$var wire 1 " rst $end
$var wire 8 # wr_port__addr $end
$var wire 32 % wr_port__data $end
$var wire 1 ' wr_port__en $end
$var wire 8 ) rd_port__addr $end
$var wire 32 + rd_port__data $end
$var wire 1 , rd_port__en $end
$upscope $end
$upscope $end
$upscope $end
$enddefinitions $end
#0
$dumpvars
0!
0"
b10000 #
b10000 $
b11011110101011011011111011101111 %
b11011110101011011011111011101111 &
1'
1(
b10000 )
b0 *
b0 +
1,
b0 -
b0 .
b0 /
b0 0
b0 1
b0 2
b0 3
b0 4
b0 5
b0 6
b0 7
b0 8
b0 9
b0 :
b0 ;
b0 <
b0 =
b0 >
b0 ?
b0 @
b0 A
b0 B
b0 C
b0 D
b0 E
b0 F
b0 G
b0 H
b0 I
b0 J
b0 K
b0 L
b0 M
b0 N
b0 O
b0 P
b0 Q
b0 R
b0 S
b0 T
b0 U
b0 V
b0 W
b0 X
b0 Y
b0 Z
b0 [
b0 \
b0 ]
b0 ^
b0 _
b0 `
b0 a
b0 b
b0 c
b0 d
b0 e
b0 f
b0 g
b0 h
b0 i
b0 j
b0 k
b0 l
b0 m
b0 n
b0 o
b0 p
b0 q
b0 r
b0 s
b0 t
b0 u
b0 v
b0 w
b0 x
b0 y
b0 z
b0 {
b0 |
b0 }
b0 ~
b0 !!
b0 "!
b0 #!
b0 $!
b0 %!
b0 &!
b0 '!
b0 (!
b0 )!
b0 *!
b0 +!
b0 ,!
b0 -!
b0 .!
b0 /!
b0 0!
b0 1!
b0 2!
b0 3!
b0 4!
b0 5!
b0 6!
b0 7!
b0 8!
b0 9!
b0 :!
b0 ;!
b0 <!
b0 =!
b0 >!
b0 ?!
b0 @!
b0 A!
b0 B!
b0 C!
b0 D!
b0 E!
b0 F!
b0 G!
b0 H!
b0 I!
b0 J!
b0 K!
b0 L!
b0 M!
b0 N!
b0 O!
b0 P!
b0 Q!
b0 R!
b0 S!
b0 T!
b0 U!
b0 V!
b0 W!
b0 X!
b0 Y!
b0 Z!
b0 [!
b0 \!
b0 ]!
b0 ^!
b0 _!
b0 `!
b0 a!
b0 b!
b0 c!
b0 d!
b0 e!
b0 f!
b0 g!
b0 h!
b0 i!
b0 j!
b0 k!
b0 l!
b0 m!
b0 n!
b0 o!
b0 p!
b0 q!
b0 r!
b0 s!
b0 t!
b0 u!
b0 v!
b0 w!
b0 x!
b0 y!
b0 z!
b0 {!
b0 |!
b0 }!
b0 ~!
b0 !"
b0 ""
b0 #"
b0 $"
b0 %"
b0 &"
b0 '"
b0 ("
b0 )"
b0 *"
b0 +"
b0 ,"
b0 -"
b0 ."
b0 /"
b0 0"
b0 1"
b0 2"
b0 3"
b0 4"
b0 5"
b0 6"
b0 7"
b0 8"
b0 9"
b0 :"
b0 ;"
b0 <"
b0 ="
b0 >"
b0 ?"
b0 @"
b0 A"
b0 B"
b0 C"
b0 D"
b0 E"
b0 F"
b0 G"
b0 H"
b0 I"
b0 J"
b0 K"
b0 L"
b0 M"
b0 N"
b0 O"
b0 P"
b0 Q"
b0 R"
b0 S"
b0 T"
b0 U"
b0 V"
b0 W"
b0 X"
b0 Y"
b0 Z"
b0 ["
b0 \"
b0 ]"
b0 ^"
b0 _"
b0 `"
b0 a"
b0 b"
b0 c"
b0 d"
b0 e"
b0 f"
b0 g"
b0 h"
b0 i"
b0 j"
b0 k"
b0 l"
b0 m"
b0 n"
b0 o"
b0 p"
$end
#500000000
1!
b11011110101011011011111011101111 =
b11011110101011011011111011101111 +
b11011110101011011011111011101111 *
b100000 $
b100000 )
b100000 #
b10010001101000101011001111000 &
b10010001101000101011001111000 %
#1000000000
0!
#1500000000
1!
b10010001101000101011001111000 +
b10010001101000101011001111000 M
b10010001101000101011001111000 *
b10101010101010101010101010101010 &
b10101010101010101010101010101010 %
0(
0'
#2000000000
0!
#2500000000
1!
b0 $
b0 )
b0 #
b1 &
b1 %
1(
1'
#3000000000
0!
#3500000000
1!
b1 +
b1 -
b1 *
b10000 $
b10000 )
b10000 #
b10001000100010001000100010001 &
b10001000100010001000100010001 %
#4000000000
0!
#4500000000
1!
b10001000100010001000100010001 +
b10001000100010001000100010001 =
b10001000100010001000100010001 *
b100000 $
b100000 )
b100000 #
b100010001000100010001000100010 &
b100010001000100010001000100010 %
#5000000000
0!
#5500000000
1!
b100010001000100010001000100010 +
b100010001000100010001000100010 M
b100010001000100010001000100010 *
b110000 $
b110000 )
b110000 #
b110011001100110011001100110011 &
b110011001100110011001100110011 %
#6000000000
0!
#6500000000
1!
b110011001100110011001100110011 +
b110011001100110011001100110011 ]
b110011001100110011001100110011 *
b11111111 $
b11111111 )
b11111111 #
b11111111111111111111111111111111 &
b11111111111111111111111111111111 %
#7000000000
0!
#7500000000
1!
b11111111111111111111111111111111 +
b11111111111111111111111111111111 p"
b11111111111111111111111111111111 *
0(
0'
b0 $
b0 )
b0 #
#8000000000
0!
#8500000000
1!
b1 +
b1 *
b10000 $
b10000 )
b10000 #
#9000000000
0!
#9500000000
1!
b10001000100010001000100010001 +
b10001000100010001000100010001 *
b100000 $
b100000 )
b100000 #
#10000000000
0!
#10500000000
1!
b100010001000100010001000100010 +
b100010001000100010001000100010 *
b110000 $
b110000 )
b110000 #
#11000000000
0!
#11500000000
1!
b110011001100110011001100110011 +
b110011001100110011001100110011 *
b11111111 $
b11111111 )
b11111111 #
#12000000000
0!
#12500000000
1!
b11111111111111111111111111111111 +
b11111111111111111111111111111111 *
b1010000 $
b1010000 )
b1010000 #
b11001010111111101011101010111110 &
b11001010111111101011101010111110 %
1(
1'
#13000000000
0!
#13500000000
1!
b11001010111111101011101010111110 +
b11001010111111101011101010111110 }
b11001010111111101011101010111110 *
b1000010 $
b1000010 )
b1000010 #
b10111110111011111100101011111110 &
b10111110111011111100101011111110 %
#14000000000
0!
#14500000000
1!
b10111110111011111100101011111110 +
b10111110111011111100101011111110 o
b10111110111011111100101011111110 *
b1000011 $
b1000011 )
b1000011 #
b10011001100110011001100110011001 &
b10011001100110011001100110011001 %
#15000000000
0!
#15500000000
1!
b10011001100110011001100110011001 +
b10011001100110011001100110011001 p
b10011001100110011001100110011001 *
b1000010 $
b1000010 )
b1000010 #
0(
0'
#16000000000
0!
#16500000000
1!
b10111110111011111100101011111110 +
b10111110111011111100101011111110 *
b0 $
b0 )
b0 #
b0 &
b0 %
1(
1'
#17000000000
0!
#17500000000
1!
b0 +
b0 -
b0 *
b11111111 $
b11111111 )
b11111111 #
b11111111111111111111111111111111 &
b11111111111111111111111111111111 %
#18000000000
0!
#18500000000
1!
b11111111111111111111111111111111 +
b11111111111111111111111111111111 *
b10000000 $
b10000000 )
b10000000 #
b10001000100010001000100010001 &
b10001000100010001000100010001 %
#19000000000
0!
#19500000000
1!
b10001000100010001000100010001 +
b10001000100010001000100010001 O!
b10001000100010001000100010001 *
b100010001000100010001000100010 &
b100010001000100010001000100010 %
#20000000000
0!
#20500000000
1!
b100010001000100010001000100010 O!
b100010001000100010001000100010 +
b100010001000100010001000100010 *
b0 $
b0 )
b0 #
b0 &
b0 %
#21000000000
0!
#21500000000
1!
b0 +
b0 *
b1 $
b1 )
b1 #
b10001000100010001000100010001 &
b10001000100010001000100010001 %
#22000000000
0!
#22500000000
1!
b10001000100010001000100010001 .
b10001000100010001000100010001 +
b10001000100010001000100010001 *
b10 $
b10 )
b10 #
b100010001000100010001000100010 &
b100010001000100010001000100010 %
#23000000000
0!
#23500000000
1!
b100010001000100010001000100010 +
b100010001000100010001000100010 /
b100010001000100010001000100010 *
b11 $
b11 )
b11 #
b110011001100110011001100110011 &
b110011001100110011001100110011 %
#24000000000
0!
#24500000000
1!
b110011001100110011001100110011 0
b110011001100110011001100110011 +
b110011001100110011001100110011 *
b100 $
b100 )
b100 #
b1000100010001000100010001000100 &
b1000100010001000100010001000100 %
#25000000000
0!
#25500000000
1!
b1000100010001000100010001000100 +
b1000100010001000100010001000100 1
b1000100010001000100010001000100 *
b101 $
b101 )
b101 #
b1010101010101010101010101010101 &
b1010101010101010101010101010101 %
#26000000000
0!
#26500000000
1!
b1010101010101010101010101010101 2
b1010101010101010101010101010101 +
b1010101010101010101010101010101 *
b110 $
b110 )
b110 #
b1100110011001100110011001100110 &
b1100110011001100110011001100110 %
#27000000000
0!
#27500000000
1!
b1100110011001100110011001100110 +
b1100110011001100110011001100110 3
b1100110011001100110011001100110 *
b111 $
b111 )
b111 #
b1110111011101110111011101110111 &
b1110111011101110111011101110111 %
#28000000000
0!
#28500000000
1!
b1110111011101110111011101110111 4
b1110111011101110111011101110111 +
b1110111011101110111011101110111 *
b1000 $
b1000 )
b1000 #
b10001000100010001000100010001000 &
b10001000100010001000100010001000 %
#29000000000
0!
#29500000000
1!
b10001000100010001000100010001000 +
b10001000100010001000100010001000 5
b10001000100010001000100010001000 *
b1001 $
b1001 )
b1001 #
b10011001100110011001100110011001 &
b10011001100110011001100110011001 %
#30000000000
0!
#30500000000
1!
b10011001100110011001100110011001 6
b10011001100110011001100110011001 +
b10011001100110011001100110011001 *
b1010 $
b1010 )
b1010 #
b10101010101010101010101010101010 &
b10101010101010101010101010101010 %
#31000000000
0!
#31500000000
1!
b10101010101010101010101010101010 +
b10101010101010101010101010101010 7
b10101010101010101010101010101010 *
b1011 $
b1011 )
b1011 #
b10111011101110111011101110111011 &
b10111011101110111011101110111011 %
#32000000000
0!
#32500000000
1!
b10111011101110111011101110111011 8
b10111011101110111011101110111011 +
b10111011101110111011101110111011 *
b1100 $
b1100 )
b1100 #
b11001100110011001100110011001100 &
b11001100110011001100110011001100 %
#33000000000
0!
#33500000000
1!
b11001100110011001100110011001100 +
b11001100110011001100110011001100 9
b11001100110011001100110011001100 *
b1101 $
b1101 )
b1101 #
b11011101110111011101110111011101 &
b11011101110111011101110111011101 %
#34000000000
0!
#34500000000
1!
b11011101110111011101110111011101 :
b11011101110111011101110111011101 +
b11011101110111011101110111011101 *
b1110 $
b1110 )
b1110 #
b11101110111011101110111011101110 &
b11101110111011101110111011101110 %
#35000000000
0!
#35500000000
1!
b11101110111011101110111011101110 +
b11101110111011101110111011101110 ;
b11101110111011101110111011101110 *
b1111 $
b1111 )
b1111 #
b11111111111111111111111111111111 &
b11111111111111111111111111111111 %
#36000000000
0!
#36500000000
1!
b11111111111111111111111111111111 <
b11111111111111111111111111111111 +
b11111111111111111111111111111111 *
0(
0'
b0 $
b0 )
b0 #
#37000000000
0!
#37500000000
1!
b0 +
b0 *
b1 $
b1 )
b1 #
#38000000000
0!
#38500000000
1!
b10001000100010001000100010001 +
b10001000100010001000100010001 *
b10 $
b10 )
b10 #
#39000000000
0!
#39500000000
1!
b100010001000100010001000100010 +
b100010001000100010001000100010 *
b11 $
b11 )
b11 #
#40000000000
0!
#40500000000
1!
b110011001100110011001100110011 +
b110011001100110011001100110011 *
b100 $
b100 )
b100 #
#41000000000
0!
#41500000000
1!
b1000100010001000100010001000100 +
b1000100010001000100010001000100 *
b101 $
b101 )
b101 #
#42000000000
0!
#42500000000
1!
b1010101010101010101010101010101 +
b1010101010101010101010101010101 *
b110 $
b110 )
b110 #
#43000000000
0!
#43500000000
1!
b1100110011001100110011001100110 +
b1100110011001100110011001100110 *
b111 $
b111 )
b111 #
#44000000000
0!
#44500000000
1!
b1110111011101110111011101110111 +
b1110111011101110111011101110111 *
b1000 $
b1000 )
b1000 #
#45000000000
0!
#45500000000
1!
b10001000100010001000100010001000 +
b10001000100010001000100010001000 *
b1001 $
b1001 )
b1001 #
#46000000000
0!
#46500000000
1!
b10011001100110011001100110011001 +
b10011001100110011001100110011001 *
b1010 $
b1010 )
b1010 #
#47000000000
0!
#47500000000
1!
b10101010101010101010101010101010 +
b10101010101010101010101010101010 *
b1011 $
b1011 )
b1011 #
#48000000000
0!
#48500000000
1!
b10111011101110111011101110111011 +
b10111011101110111011101110111011 *
b1100 $
b1100 )
b1100 #
#49000000000
0!
#49500000000
1!
b11001100110011001100110011001100 +
b11001100110011001100110011001100 *
b1101 $
b1101 )
b1101 #
#50000000000
0!
#50500000000
1!
b11011101110111011101110111011101 +
b11011101110111011101110111011101 *
b1110 $
b1110 )
b1110 #
#51000000000
0!
#51500000000
1!
b11101110111011101110111011101110 +
b11101110111011101110111011101110 *
b1111 $
b1111 )
b1111 #
#52000000000
0!
#52500000000
1!
b11111111111111111111111111111111 +
b11111111111111111111111111111111 *
