pc.vcd
$comment Generated by Amaranth $end
$date 2025-11-11 19:34:57.859529 $end
$timescale 1 fs $end
$scope module bench $end
$scope module top $end
$var wire 1 ! clk $end
$var wire 1 " rst $end
$var wire 32 # addr_out $end
$var wire 30 $ pc_reg $end
$var wire 1 % enable $end
$var wire 32 & addr_in $end
$upscope $end
$upscope $end
$enddefinitions $end
#0
$dumpvars
0!
0"
b0 #
b0 $
0%
b0 &
$end
#500000000
1!
b1000000000000 &
1%
#1000000000
0!
#1500000000
1!
b10000000000 $
b1000000000000 #
0%
#2000000000
0!
#2500000000
1!
b1000000000100 &
1%
#3000000000
0!
#3500000000
1!
b10000000001 $
b1000000000100 #
0%
#4000000000
0!
#4500000000
1!
b1000000001000 &
1%
#5000000000
0!
#5500000000
1!
b10000000010 $
b1000000001000 #
b1000000001100 &
#6000000000
0!
#6500000000
1!
b10000000011 $
b1000000001100 #
b1000000010000 &
#7000000000
0!
#7500000000
1!
b10000000100 $
b1000000010000 #
b1000000010100 &
#8000000000
0!
#8500000000
1!
b10000000101 $
b1000000010100 #
b1000000011000 &
#9000000000
0!
#9500000000
1!
b10000000110 $
b1000000011000 #
0%
#10000000000
0!
#10500000000
1!
b10000000000000 &
1%
#11000000000
0!
#11500000000
1!
b100000000000 $
b10000000000000 #
0%
#12000000000
0!
#12500000000
1!
b11000000000011 &
1%
#13000000000
0!
#13500000000
1!
b110000000000 $
b11000000000000 #
0%
#14000000000
0!
#14500000000
1!
b1001100110011001 &
#15000000000
0!
#15500000000
1!
#16000000000
0!
#16500000000
1!
#17000000000
0!
#17500000000
1!
b11111111111111111111111111111100 &
1%
#18000000000
0!
#18500000000
1!
b111111111111111111111111111111 $
b11111111111111111111111111111100 #
0%
#19000000000
0!
#19500000000
1!
1%
#20000000000
0!
#20500000000
1!
0%
#21000000000
0!
#21500000000
1!
b0 &
1%
#22000000000
0!
#22500000000
1!
b0 $
b0 #
0%
#23000000000
0!
#23500000000
1!
b1000000000000 &
1%
#24000000000
0!
#24500000000
1!
b10000000000 $
b1000000000000 #
b1000000000100 &
#25000000000
0!
#25500000000
1!
b10000000001 $
b1000000000100 #
b101000000000000 &
#26000000000
0!
#26500000000
1!
b1010000000000 $
b101000000000000 #
0%
#27000000000
0!
#27500000000
1!
b1000000001000 &
1%
#28000000000
0!
#28500000000
1!
b10000000010 $
b1000000001000 #
0%
#29000000000
0!
#29500000000
1!
1%
b10000000000000 &
#30000000000
0!
#30500000000
1!
b100000000000 $
b10000000000000 #
b10000000000100 &
#31000000000
0!
#31500000000
1!
b100000000001 $
b10000000000100 #
b10000000001000 &
#32000000000
0!
#32500000000
1!
b100000000010 $
b10000000001000 #
b10000000001100 &
#33000000000
0!
#33500000000
1!
b100000000011 $
b10000000001100 #
b10000000010000 &
#34000000000
0!
#34500000000
1!
b100000000100 $
b10000000010000 #
b10000000010100 &
#35000000000
0!
#35500000000
1!
b100000000101 $
b10000000010100 #
b10000000011000 &
#36000000000
0!
#36500000000
1!
b100000000110 $
b10000000011000 #
b10000000011100 &
#37000000000
0!
#37500000000
1!
b100000000111 $
b10000000011100 #
b10000000100000 &
#38000000000
0!
#38500000000
1!
b100000001000 $
b10000000100000 #
b10000000100100 &
#39000000000
0!
#39500000000
1!
b100000001001 $
b10000000100100 #
0%
