regfile.vcd
$comment Generated by Amaranth $end
$date 2025-11-11 15:23:50.533622 $end
$timescale 1 fs $end
$scope module bench $end
$scope module top $end
$var wire 5 ! rp0__addr $end
$var wire 5 " rd_addr0 $end
$var wire 5 # rp1__addr $end
$var wire 5 $ rd_addr1 $end
$var wire 32 % rd_data0 $end
$var wire 32 & rp0__data $end
$var wire 32 ' rd_data1 $end
$var wire 32 ( rp1__data $end
$var wire 5 ) wp__addr $end
$var wire 5 * wr_addr $end
$var wire 32 + wp__data $end
$var wire 32 , wr_data $end
$var wire 1 - wp__en $end
$var wire 1 . wr_en $end
$var wire 32 1 \mem[0] $end
$var wire 32 2 \mem[1] $end
$var wire 32 3 \mem[2] $end
$var wire 32 4 \mem[3] $end
$var wire 32 5 \mem[4] $end
$var wire 32 6 \mem[5] $end
$var wire 32 7 \mem[6] $end
$var wire 32 8 \mem[7] $end
$var wire 32 9 \mem[8] $end
$var wire 32 : \mem[9] $end
$var wire 32 ; \mem[10] $end
$var wire 32 < \mem[11] $end
$var wire 32 = \mem[12] $end
$var wire 32 > \mem[13] $end
$var wire 32 ? \mem[14] $end
$var wire 32 @ \mem[15] $end
$var wire 32 A \mem[16] $end
$var wire 32 B \mem[17] $end
$var wire 32 C \mem[18] $end
$var wire 32 D \mem[19] $end
$var wire 32 E \mem[20] $end
$var wire 32 F \mem[21] $end
$var wire 32 G \mem[22] $end
$var wire 32 H \mem[23] $end
$var wire 32 I \mem[24] $end
$var wire 32 J \mem[25] $end
$var wire 32 K \mem[26] $end
$var wire 32 L \mem[27] $end
$var wire 32 M \mem[28] $end
$var wire 32 N \mem[29] $end
$var wire 32 O \mem[30] $end
$var wire 32 P \mem[31] $end
$scope module mem $end
$var wire 5 ! rp0__addr $end
$var wire 5 # rp1__addr $end
$var wire 32 & rp0__data $end
$var wire 32 ( rp1__data $end
$var wire 5 ) wp__addr $end
$var wire 32 + wp__data $end
$var wire 1 - wp__en $end
$var wire 1 / clk $end
$var wire 1 0 rst $end
$upscope $end
$upscope $end
$upscope $end
$enddefinitions $end
#0
$dumpvars
b1001 !
b1001 "
b0 #
b0 $
b0 %
b0 &
b0 '
b0 (
b0 )
b0 *
b0 +
b0 ,
0-
0.
0/
00
b0 1
b0 2
b0 3
b0 4
b0 5
b0 6
b0 7
b0 8
b0 9
b0 :
b0 ;
b0 <
b0 =
b0 >
b0 ?
b0 @
b0 A
b0 B
b0 C
b0 D
b0 E
b0 F
b0 G
b0 H
b0 I
b0 J
b0 K
b0 L
b0 M
b0 N
b0 O
b0 P
$end
#500000000
1/
b1100 "
b1100 !
#1000000000
0/
#1500000000
1/
b10011 "
b10011 !
#2000000000
0/
#2500000000
1/
b11001 "
b11001 !
#3000000000
0/
#3500000000
1/
b11 "
b11 !
#4000000000
0/
#4500000000
1/
b1 *
b1 )
b10010001101000101011001111000 ,
b10010001101000101011001111000 +
1.
1-
#5000000000
0/
#5500000000
1/
b10010001101000101011001111000 2
0.
0-
b1 "
b1 !
b10010001101000101011001111000 &
b10010001101000101011001111000 %
#6000000000
0/
#6500000000
1/
b101 *
b101 )
b11011110101011011011111011101111 ,
b11011110101011011011111011101111 +
1.
1-
#7000000000
0/
#7500000000
1/
b11011110101011011011111011101111 6
0.
0-
b101 "
b101 !
b11011110101011011011111011101111 &
b11011110101011011011111011101111 %
#8000000000
0/
#8500000000
1/
b1010 *
b1010 )
b11001010111111101011101010111110 ,
b11001010111111101011101010111110 +
1.
1-
#9000000000
0/
#9500000000
1/
b11001010111111101011101010111110 ;
0.
0-
b1010 "
b1010 !
b11001010111111101011101010111110 &
b11001010111111101011101010111110 %
#10000000000
0/
#10500000000
1/
b11111 *
b11111 )
b11111111111111111111111111111111 ,
b11111111111111111111111111111111 +
1.
1-
#11000000000
0/
#11500000000
1/
b11111111111111111111111111111111 P
0.
0-
b11111 "
b11111 !
b11111111111111111111111111111111 &
b11111111111111111111111111111111 %
#12000000000
0/
#12500000000
1/
b0 *
b0 )
b11011110101011011011111011101111 ,
b11011110101011011011111011101111 +
1.
#13000000000
0/
#13500000000
1/
0.
b0 "
b0 !
b0 %
b0 &
#14000000000
0/
#14500000000
1/
b1 "
b1 !
b10010001101000101011001111000 &
b10010001101000101011001111000 %
b101 $
b101 #
b11011110101011011011111011101111 (
b11011110101011011011111011101111 '
#15000000000
0/
#15500000000
1/
b111 *
b111 )
b10101011110011010001001000110100 ,
b10101011110011010001001000110100 +
1.
1-
b111 "
b111 !
b0 &
b0 %
#16000000000
0/
#16500000000
1/
b10101011110011010001001000110100 8
b10101011110011010001001000110100 &
b10101011110011010001001000110100 %
b0 *
0-
b0 )
b0 ,
b0 +
#17000000000
0/
#17500000000
1/
b1 *
1-
b1 )
#18000000000
0/
#18500000000
1/
b0 2
b10 *
b10 )
#19000000000
0/
#19500000000
1/
b11 *
b11 )
#20000000000
0/
#20500000000
1/
b100 *
b100 )
#21000000000
0/
#21500000000
1/
b101 *
b101 )
#22000000000
0/
#22500000000
1/
b0 6
b0 (
b0 '
b110 *
b110 )
#23000000000
0/
#23500000000
1/
b111 *
b111 )
#24000000000
0/
#24500000000
1/
b0 8
b0 &
b0 %
b1000 *
b1000 )
#25000000000
0/
#25500000000
1/
b1001 *
b1001 )
#26000000000
0/
#26500000000
1/
b1010 *
b1010 )
#27000000000
0/
#27500000000
1/
b0 ;
b1011 *
b1011 )
#28000000000
0/
#28500000000
1/
b1100 *
b1100 )
#29000000000
0/
#29500000000
1/
b1101 *
b1101 )
#30000000000
0/
#30500000000
1/
b1110 *
b1110 )
#31000000000
0/
#31500000000
1/
b1111 *
b1111 )
#32000000000
0/
#32500000000
1/
b10000 *
b10000 )
#33000000000
0/
#33500000000
1/
b10001 *
b10001 )
#34000000000
0/
#34500000000
1/
b10010 *
b10010 )
#35000000000
0/
#35500000000
1/
b10011 *
b10011 )
#36000000000
0/
#36500000000
1/
b10100 *
b10100 )
#37000000000
0/
#37500000000
1/
b10101 *
b10101 )
#38000000000
0/
#38500000000
1/
b10110 *
b10110 )
#39000000000
0/
#39500000000
1/
b10111 *
b10111 )
#40000000000
0/
#40500000000
1/
b11000 *
b11000 )
#41000000000
0/
#41500000000
1/
b11001 *
b11001 )
#42000000000
0/
#42500000000
1/
b11010 *
b11010 )
#43000000000
0/
#43500000000
1/
b11011 *
b11011 )
#44000000000
0/
#44500000000
1/
b11100 *
b11100 )
#45000000000
0/
#45500000000
1/
b11101 *
b11101 )
#46000000000
0/
#46500000000
1/
b11110 *
b11110 )
#47000000000
0/
#47500000000
1/
b11111 *
b11111 )
#48000000000
0/
#48500000000
1/
b0 P
0.
0-
b101 "
b101 !
b10100 $
b10100 #
#49000000000
0/
#49500000000
1/
b11 *
b11 )
b111110000001101001101100111010 ,
b111110000001101001101100111010 +
1.
1-
b10110 "
b10110 !
b1 $
b1 #
#50000000000
0/
#50500000000
1/
b111110000001101001101100111010 4
b10110 *
b10110 )
b110010011100000000111000110010 ,
b110010011100000000111000110010 +
b10101 "
b10101 !
b1000 $
b1000 #
#51000000000
0/
#51500000000
1/
b110010011100000000111000110010 G
0.
0-
b11101 "
b11101 !
b1010 $
b1010 #
#52000000000
0/
#52500000000
1/
b1100 "
b1100 !
#53000000000
0/
#53500000000
1/
b101 *
b101 )
b11100111010001000010100011001101 ,
b11100111010001000010100011001101 +
1.
1-
b110 "
b110 !
b11110 $
b11110 #
#54000000000
0/
#54500000000
1/
b11100111010001000010100011001101 6
b11010 *
b11010 )
b11011110011100111000101110101011 ,
b11011110011100111000101110101011 +
b1010 "
b1010 !
b10100 $
b10100 #
#55000000000
0/
#55500000000
1/
b11011110011100111000101110101011 K
0.
0-
b111 "
b111 !
b11 $
b11 #
b111110000001101001101100111010 (
b111110000001101001101100111010 '
#56000000000
0/
#56500000000
1/
b11100 "
b11100 !
b10110 $
b10110 #
b110010011100000000111000110010 (
b110010011100000000111000110010 '
#57000000000
0/
#57500000000
1/
b1011 *
b1011 )
b11001100100110111101011001101101 ,
b11001100100110111101011001101101 +
1.
1-
b1100 "
b1100 !
b0 $
b0 #
b0 '
b0 (
#58000000000
0/
#58500000000
1/
b11001100100110111101011001101101 <
b1111 *
b1111 )
b11110000011011110001010011110100 ,
b11110000011011110001010011110100 +
b11000 "
b11000 !
b11100 $
b11100 #
#59000000000
0/
#59500000000
1/
b11110000011011110001010011110100 @
0.
0-
b11 "
b11 !
b111110000001101001101100111010 &
b111110000001101001101100111010 %
b1111 $
b1111 #
b11110000011011110001010011110100 (
b11110000011011110001010011110100 '
#60000000000
0/
#60500000000
1/
b110 "
b110 !
b0 &
b0 %
b11110 $
b11110 #
b0 (
b0 '
#61000000000
0/
#61500000000
1/
b10100 "
b10100 !
b10010 $
b10010 #
#62000000000
0/
#62500000000
1/
b1110 "
b1110 !
b10111 $
b10111 #
#63000000000
0/
#63500000000
1/
b1111 "
b1111 !
b11110000011011110001010011110100 &
b11110000011011110001010011110100 %
b10011 $
b10011 #
#64000000000
0/
#64500000000
1/
b111 "
b111 !
b0 &
b0 %
b10100 $
b10100 #
#65000000000
0/
#65500000000
1/
b10011 "
b10011 !
b11110 $
b11110 #
#66000000000
0/
#66500000000
1/
b10000 "
b10000 !
b1111 $
b1111 #
b11110000011011110001010011110100 (
b11110000011011110001010011110100 '
#67000000000
0/
#67500000000
1/
b10010 "
b10010 !
b11100 $
b11100 #
b0 (
b0 '
#68000000000
0/
#68500000000
1/
b101 "
b101 !
b11100111010001000010100011001101 &
b11100111010001000010100011001101 %
b10110 $
b10110 #
b110010011100000000111000110010 (
b110010011100000000111000110010 '
#69000000000
0/
#69500000000
1/
b1110 *
b1110 )
b11010101000011100111111001001010 ,
b11010101000011100111111001001010 +
1.
1-
b11110 "
b11110 !
b0 &
b0 %
b11110 $
b11110 #
b0 (
b0 '
#70000000000
0/
#70500000000
1/
b11010101000011100111111001001010 ?
b111 *
b111 )
b1001011111001110000011101010010 ,
b1001011111001110000011101010010 +
b10001 "
b10001 !
b10010 $
b10010 #
#71000000000
0/
#71500000000
1/
b1001011111001110000011101010010 8
0.
0-
b10100 "
b10100 !
b10011 $
b10011 #
#72000000000
0/
#72500000000
1/
b10000 *
b10000 )
b1010110101010110001110010101111 ,
b1010110101010110001110010101111 +
1.
1-
b10101 "
b10101 !
b10101 $
b10101 #
#73000000000
0/
#73500000000
1/
b1010110101010110001110010101111 A
b11110 *
b11110 )
b1001010101001100110011010111100 ,
b1001010101001100110011010111100 +
b1011 "
b1011 !
b11001100100110111101011001101101 &
b11001100100110111101011001101101 %
b111 $
b111 #
b1001011111001110000011101010010 (
b1001011111001110000011101010010 '
#74000000000
0/
#74500000000
1/
b1001010101001100110011010111100 O
b11101 *
b11101 )
b11110100011111111110101111011100 ,
b11110100011111111110101111011100 +
b10111 "
b10111 !
b0 &
b0 %
b11001 $
b11001 #
b0 (
b0 '
#75000000000
0/
#75500000000
1/
b11110100011111111110101111011100 N
0.
0-
b1110 "
b1110 !
b11010101000011100111111001001010 &
b11010101000011100111111001001010 %
b111 $
b111 #
b1001011111001110000011101010010 (
b1001011111001110000011101010010 '
#76000000000
0/
#76500000000
1/
b111 "
b111 !
b1001011111001110000011101010010 &
b1001011111001110000011101010010 %
b10101 $
b10101 #
b0 (
b0 '
#77000000000
0/
#77500000000
1/
b11110 "
b11110 !
b1001010101001100110011010111100 &
b1001010101001100110011010111100 %
b11110 $
b11110 #
b1001010101001100110011010111100 (
b1001010101001100110011010111100 '
#78000000000
0/
#78500000000
1/
b11 "
b11 !
b111110000001101001101100111010 &
b111110000001101001101100111010 %
b11111 $
b11111 #
b0 (
b0 '
#79000000000
0/
#79500000000
1/
b10 *
b10 )
b1010000011111011100101001001 ,
b1010000011111011100101001001 +
1.
1-
b1011 "
b1011 !
b11001100100110111101011001101101 &
b11001100100110111101011001101101 %
b10001 $
b10001 #
#80000000000
0/
#80500000000
1/
b1010000011111011100101001001 3
b101 *
b101 )
b1000011011101011010110100010111 ,
b1000011011101011010110100010111 +
b11100 "
b11100 !
b0 &
b0 %
b10111 $
b10111 #
#81000000000
0/
#81500000000
1/
b1000011011101011010110100010111 6
b1100 *
b1100 )
b11000110000001100100111000001010 ,
b11000110000001100100111000001010 +
b1010 "
b1010 !
b1110 $
b1110 #
b11010101000011100111111001001010 (
b11010101000011100111111001001010 '
#82000000000
0/
#82500000000
1/
b11000110000001100100111000001010 =
b11 *
b11 )
b10011111010000001111110011 ,
b10011111010000001111110011 +
b1100 "
b1100 !
b11000110000001100100111000001010 &
b11000110000001100100111000001010 %
b1011 $
b1011 #
b11001100100110111101011001101101 (
b11001100100110111101011001101101 '
#83000000000
0/
#83500000000
1/
b10011111010000001111110011 4
b10111 *
b10111 )
b11100010110110100111111101010100 ,
b11100010110110100111111101010100 +
b11010 "
b11010 !
b11011110011100111000101110101011 &
b11011110011100111000101110101011 %
b1101 $
b1101 #
b0 (
b0 '
#84000000000
0/
#84500000000
1/
b11100010110110100111111101010100 H
b1 *
b1 )
b10100101011000111010011010011100 ,
b10100101011000111010011010011100 +
b110 "
b110 !
b0 &
b0 %
b11110 $
b11110 #
b1001010101001100110011010111100 (
b1001010101001100110011010111100 '
#85000000000
0/
#85500000000
1/
b10100101011000111010011010011100 2
0.
0-
b11010 "
b11010 !
b11011110011100111000101110101011 &
b11011110011100111000101110101011 %
b10100 $
b10100 #
b0 (
b0 '
#86000000000
0/
#86500000000
1/
b11000 "
b11000 !
b0 &
b0 %
b100 $
b100 #
#87000000000
0/
#87500000000
1/
b11000 *
b11000 )
b1100010101100010111110000011110 ,
b1100010101100010111110000011110 +
1.
1-
b1101 "
b1101 !
b10110 $
b10110 #
b110010011100000000111000110010 (
b110010011100000000111000110010 '
#88000000000
0/
#88500000000
1/
b1100010101100010111110000011110 I
0.
0-
b10010 "
b10010 !
b11000 $
b11000 #
b1100010101100010111110000011110 (
b1100010101100010111110000011110 '
#89000000000
0/
#89500000000
1/
b111 "
b111 !
b1001011111001110000011101010010 &
b1001011111001110000011101010010 %
b10101 $
b10101 #
b0 (
b0 '
#90000000000
0/
#90500000000
1/
b110 "
b110 !
b0 &
b0 %
b10011 $
b10011 #
#91000000000
0/
#91500000000
1/
b1011 "
b1011 !
b11001100100110111101011001101101 &
b11001100100110111101011001101101 %
b1000 $
b1000 #
#92000000000
0/
#92500000000
1/
b10010 *
b10010 )
b111100001101111010101101000 ,
b111100001101111010101101000 +
1.
1-
b11011 "
b11011 !
b0 &
b0 %
b1001 $
b1001 #
#93000000000
0/
#93500000000
1/
b111100001101111010101101000 C
b101 *
b101 )
b1000101101110001000111101001010 ,
b1000101101110001000111101001010 +
b10 "
b10 !
b1010000011111011100101001001 &
b1010000011111011100101001001 %
b11110 $
b11110 #
b1001010101001100110011010111100 (
b1001010101001100110011010111100 '
#94000000000
0/
#94500000000
1/
b1000101101110001000111101001010 6
b1001 *
b1001 )
b11000101011011011100011110000000 ,
b11000101011011011100011110000000 +
b11011 "
b11011 !
b0 &
b0 %
b1001 $
b1001 #
b0 (
b0 '
#95000000000
0/
#95500000000
1/
b11000101011011011100011110000000 :
b11000101011011011100011110000000 (
b11000101011011011100011110000000 '
0.
0-
b1100 "
b1100 !
b11000110000001100100111000001010 &
b11000110000001100100111000001010 %
b1011 $
b1011 #
b11001100100110111101011001101101 (
b11001100100110111101011001101101 '
#96000000000
0/
#96500000000
1/
b11110 "
b11110 !
b1001010101001100110011010111100 &
b1001010101001100110011010111100 %
b10 $
b10 #
b1010000011111011100101001001 (
b1010000011111011100101001001 '
#97000000000
0/
#97500000000
1/
b10010 "
b10010 !
b111100001101111010101101000 &
b111100001101111010101101000 %
b100 $
b100 #
b0 (
b0 '
#98000000000
0/
#98500000000
1/
b101 *
b101 )
b11111000101010000101111100010001 ,
b11111000101010000101111100010001 +
1.
1-
b11101 "
b11101 !
b11110100011111111110101111011100 &
b11110100011111111110101111011100 %
b10100 $
b10100 #
#99000000000
0/
#99500000000
1/
b11111000101010000101111100010001 6
b10011 *
b10011 )
b100011111010110101101000110010 ,
b100011111010110101101000110010 +
#100000000000
0/
#100500000000
1/
b100011111010110101101000110010 D
0.
0-
b10110 "
b10110 !
b110010011100000000111000110010 &
b110010011100000000111000110010 %
b1000 $
b1000 #
#101000000000
0/
#101500000000
1/
b10101 "
b10101 !
b0 &
b0 %
b11011 $
b11011 #
#102000000000
0/
#102500000000
1/
b11011 "
b11011 !
b1 $
b1 #
b10100101011000111010011010011100 (
b10100101011000111010011010011100 '
#103000000000
0/
#103500000000
1/
b10 *
b10 )
b1100011100111010011000111110011 ,
b1100011100111010011000111110011 +
1.
1-
b1011 "
b1011 !
b11001100100110111101011001101101 &
b11001100100110111101011001101101 %
b10100 $
b10100 #
b0 (
b0 '
#104000000000
0/
#104500000000
1/
b1100011100111010011000111110011 3
0.
0-
b110 "
b110 !
b0 &
b0 %
b11001 $
b11001 #
#105000000000
0/
#105500000000
1/
b11 *
b11 )
b11101001011011001001001110101000 ,
b11101001011011001001001110101000 +
1.
1-
b10101 "
b10101 !
b10001 $
b10001 #
#106000000000
0/
#106500000000
1/
b11101001011011001001001110101000 4
0.
0-
b1100 "
b1100 !
b11000110000001100100111000001010 &
b11000110000001100100111000001010 %
b1110 $
b1110 #
b11010101000011100111111001001010 (
b11010101000011100111111001001010 '
#107000000000
0/
#107500000000
1/
b11001 "
b11001 !
b0 &
b0 %
b11101 $
b11101 #
b11110100011111111110101111011100 (
b11110100011111111110101111011100 '
#108000000000
0/
#108500000000
1/
b111 "
b111 !
b1001011111001110000011101010010 &
b1001011111001110000011101010010 %
b10 $
b10 #
b1100011100111010011000111110011 (
b1100011100111010011000111110011 '
#109000000000
0/
#109500000000
1/
b1101 *
b1101 )
b10111111011100100010101111011101 ,
b10111111011100100010101111011101 +
1.
1-
b11010 "
b11010 !
b11011110011100111000101110101011 &
b11011110011100111000101110101011 %
b111 $
b111 #
b1001011111001110000011101010010 (
b1001011111001110000011101010010 '
#110000000000
0/
#110500000000
1/
b10111111011100100010101111011101 >
b1000 *
b1000 )
b10011111111010001101100010001010 ,
b10011111111010001101100010001010 +
b1 "
b1 !
b10100101011000111010011010011100 &
b10100101011000111010011010011100 %
b10010 $
b10010 #
b111100001101111010101101000 (
b111100001101111010101101000 '
#111000000000
0/
#111500000000
1/
b10011111111010001101100010001010 9
b1111 *
b1111 )
b110001100010100010101100000110 ,
b110001100010100010101100000110 +
b11001 "
b11001 !
b0 &
b0 %
b100 $
b100 #
b0 (
b0 '
#112000000000
0/
#112500000000
1/
b110001100010100010101100000110 @
0.
0-
b10011 "
b10011 !
b100011111010110101101000110010 &
b100011111010110101101000110010 %
b11010 $
b11010 #
b11011110011100111000101110101011 (
b11011110011100111000101110101011 '
#113000000000
0/
#113500000000
1/
b1 *
b1 )
b1000101110001101001101011000101 ,
b1000101110001101001101011000101 +
1.
1-
b11100 "
b11100 !
b0 &
b0 %
b10111 $
b10111 #
b11100010110110100111111101010100 (
b11100010110110100111111101010100 '
#114000000000
0/
#114500000000
1/
b1000101110001101001101011000101 2
0.
0-
b10111 "
b10111 !
b11100010110110100111111101010100 &
b11100010110110100111111101010100 %
b1100 $
b1100 #
b11000110000001100100111000001010 (
b11000110000001100100111000001010 '
#115000000000
0/
#115500000000
1/
b11100 "
b11100 !
b0 &
b0 %
b10 $
b10 #
b1100011100111010011000111110011 (
b1100011100111010011000111110011 '
#116000000000
0/
#116500000000
1/
b1100 *
b1100 )
b11101110110111100101110110011000 ,
b11101110110111100101110110011000 +
1.
1-
b101 "
b101 !
b11111000101010000101111100010001 &
b11111000101010000101111100010001 %
b11000 $
b11000 #
b1100010101100010111110000011110 (
b1100010101100010111110000011110 '
#117000000000
0/
#117500000000
1/
b11101110110111100101110110011000 =
0.
0-
b10110 "
b10110 !
b110010011100000000111000110010 &
b110010011100000000111000110010 %
b10101 $
b10101 #
b0 (
b0 '
#118000000000
0/
#118500000000
1/
b11011 *
b11011 )
b1001100010010101110011111111101 ,
b1001100010010101110011111111101 +
1.
1-
b11100 "
b11100 !
b0 &
b0 %
b11100 $
b11100 #
#119000000000
0/
#119500000000
1/
b1001100010010101110011111111101 L
0.
0-
b11110 "
b11110 !
b1001010101001100110011010111100 &
b1001010101001100110011010111100 %
b100 $
b100 #
#120000000000
0/
#120500000000
1/
b100 "
b100 !
b0 &
b0 %
b11010 $
b11010 #
b11011110011100111000101110101011 (
b11011110011100111000101110101011 '
#121000000000
0/
#121500000000
1/
b101 "
b101 !
b11111000101010000101111100010001 &
b11111000101010000101111100010001 %
b1110 $
b1110 #
b11010101000011100111111001001010 (
b11010101000011100111111001001010 '
#122000000000
0/
#122500000000
1/
b11 "
b11 !
b11101001011011001001001110101000 &
b11101001011011001001001110101000 %
b1010 $
b1010 #
b0 (
b0 '
#123000000000
0/
#123500000000
1/
b11011 "
b11011 !
b1001100010010101110011111111101 &
b1001100010010101110011111111101 %
b11011 $
b11011 #
b1001100010010101110011111111101 (
b1001100010010101110011111111101 '
#124000000000
0/
#124500000000
1/
b100 "
b100 !
b0 &
b0 %
b1011 $
b1011 #
b11001100100110111101011001101101 (
b11001100100110111101011001101101 '
#125000000000
0/
#125500000000
1/
b10111 "
b10111 !
b11100010110110100111111101010100 &
b11100010110110100111111101010100 %
b11000 $
b11000 #
b1100010101100010111110000011110 (
b1100010101100010111110000011110 '
#126000000000
0/
#126500000000
1/
b11101 *
b11101 )
b10100111001010010000101111001010 ,
b10100111001010010000101111001010 +
1.
1-
b10100 "
b10100 !
b0 &
b0 %
b1010 $
b1010 #
b0 (
b0 '
#127000000000
0/
#127500000000
1/
b10100111001010010000101111001010 N
0.
0-
b1001 "
b1001 !
b11000101011011011100011110000000 &
b11000101011011011100011110000000 %
b100 $
b100 #
#128000000000
0/
#128500000000
1/
b11110 *
b11110 )
b10010101111001111001010011000100 ,
b10010101111001111001010011000100 +
1.
1-
b100 "
b100 !
b0 &
b0 %
b10011 $
b10011 #
b100011111010110101101000110010 (
b100011111010110101101000110010 '
#129000000000
0/
#129500000000
1/
b10010101111001111001010011000100 O
0.
0-
b11 "
b11 !
b11101001011011001001001110101000 &
b11101001011011001001001110101000 %
b101 $
b101 #
b11111000101010000101111100010001 (
b11111000101010000101111100010001 '
#130000000000
0/
#130500000000
1/
b1 "
b1 !
b1000101110001101001101011000101 &
b1000101110001101001101011000101 %
b10010 $
b10010 #
b111100001101111010101101000 (
b111100001101111010101101000 '
#131000000000
0/
#131500000000
1/
b1101 "
b1101 !
b10111111011100100010101111011101 &
b10111111011100100010101111011101 %
b0 $
b0 #
b0 '
b0 (
#132000000000
0/
#132500000000
1/
b1 *
b1 )
b1111100101111011101011010011110 ,
b1111100101111011101011010011110 +
1.
1-
b11000 "
b11000 !
b1100010101100010111110000011110 &
b1100010101100010111110000011110 %
b101 $
b101 #
b11111000101010000101111100010001 (
b11111000101010000101111100010001 '
#133000000000
0/
#133500000000
1/
b1111100101111011101011010011110 2
0.
0-
b11001 "
b11001 !
b0 &
b0 %
b110 $
b110 #
b0 (
b0 '
#134000000000
0/
#134500000000
1/
b10001 *
b10001 )
b11100010001001010010011001110001 ,
b11100010001001010010011001110001 +
1.
1-
b10010 "
b10010 !
b111100001101111010101101000 &
b111100001101111010101101000 %
b1100 $
b1100 #
b11101110110111100101110110011000 (
b11101110110111100101110110011000 '
#135000000000
0/
#135500000000
1/
b11100010001001010010011001110001 B
0.
0-
b11101 "
b11101 !
b10100111001010010000101111001010 &
b10100111001010010000101111001010 %
b1001 $
b1001 #
b11000101011011011100011110000000 (
b11000101011011011100011110000000 '
#136000000000
0/
#136500000000
1/
b0 "
b0 !
b0 %
b0 &
b10001 $
b10001 #
b11100010001001010010011001110001 (
b11100010001001010010011001110001 '
#137000000000
0/
#137500000000
1/
b10101 *
b10101 )
b111101110011101001101000001010 ,
b111101110011101001101000001010 +
1.
1-
b10011 "
b10011 !
b100011111010110101101000110010 &
b100011111010110101101000110010 %
b100 $
b100 #
b0 (
b0 '
#138000000000
0/
#138500000000
1/
b111101110011101001101000001010 F
b11 *
b11 )
b1100001111111100010100111000101 ,
b1100001111111100010100111000101 +
b11110 "
b11110 !
b10010101111001111001010011000100 &
b10010101111001111001010011000100 %
b1110 $
b1110 #
b11010101000011100111111001001010 (
b11010101000011100111111001001010 '
#139000000000
0/
#139500000000
1/
b1100001111111100010100111000101 4
0.
0-
b10010 "
b10010 !
b111100001101111010101101000 &
b111100001101111010101101000 %
b1100 $
b1100 #
b11101110110111100101110110011000 (
b11101110110111100101110110011000 '
#140000000000
0/
#140500000000
1/
b1000 *
b1000 )
b10101110011011001001011000010111 ,
b10101110011011001001011000010111 +
1.
1-
b11011 "
b11011 !
b1001100010010101110011111111101 &
b1001100010010101110011111111101 %
b11010 $
b11010 #
b11011110011100111000101110101011 (
b11011110011100111000101110101011 '
#141000000000
0/
#141500000000
1/
b10101110011011001001011000010111 9
b10011 *
b10011 )
b1111100010101011110000010100 ,
b1111100010101011110000010100 +
b10 "
b10 !
b1100011100111010011000111110011 &
b1100011100111010011000111110011 %
b1 $
b1 #
b1111100101111011101011010011110 (
b1111100101111011101011010011110 '
#142000000000
0/
#142500000000
1/
b1111100010101011110000010100 D
0.
0-
b11111 "
b11111 !
b0 &
b0 %
b10000 $
b10000 #
b1010110101010110001110010101111 (
b1010110101010110001110010101111 '
#143000000000
0/
#143500000000
1/
b111 "
b111 !
b1001011111001110000011101010010 &
b1001011111001110000011101010010 %
b11000 $
b11000 #
b1100010101100010111110000011110 (
b1100010101100010111110000011110 '
#144000000000
0/
#144500000000
1/
b1011 "
b1011 !
b11001100100110111101011001101101 &
b11001100100110111101011001101101 %
b10 $
b10 #
b1100011100111010011000111110011 (
b1100011100111010011000111110011 '
#145000000000
0/
#145500000000
1/
b11 *
b11 )
b11000101111001001001101111001111 ,
b11000101111001001001101111001111 +
1.
1-
b10110 "
b10110 !
b110010011100000000111000110010 &
b110010011100000000111000110010 %
b11110 $
b11110 #
b10010101111001111001010011000100 (
b10010101111001111001010011000100 '
#146000000000
0/
#146500000000
1/
b11000101111001001001101111001111 4
b110 *
b110 )
b10011000011001000011111100001101 ,
b10011000011001000011111100001101 +
b1001 "
b1001 !
b11000101011011011100011110000000 &
b11000101011011011100011110000000 %
b10100 $
b10100 #
b0 (
b0 '
#147000000000
0/
#147500000000
1/
b10011000011001000011111100001101 7
b11001 *
b11001 )
b1101101000000110011011110001001 ,
b1101101000000110011011110001001 +
b11011 "
b11011 !
b1001100010010101110011111111101 &
b1001100010010101110011111111101 %
b1110 $
b1110 #
b11010101000011100111111001001010 (
b11010101000011100111111001001010 '
#148000000000
0/
#148500000000
1/
b1101101000000110011011110001001 J
0.
0-
b110 "
b110 !
b10011000011001000011111100001101 &
b10011000011001000011111100001101 %
b1011 $
b1011 #
b11001100100110111101011001101101 (
b11001100100110111101011001101101 '
#149000000000
0/
#149500000000
1/
b1110 *
b1110 )
b10011110100100010111010111011 ,
b10011110100100010111010111011 +
1.
1-
b100 "
b100 !
b0 &
b0 %
b10001 $
b10001 #
b11100010001001010010011001110001 (
b11100010001001010010011001110001 '
#150000000000
0/
#150500000000
1/
b10011110100100010111010111011 ?
b11000 *
b11000 )
b100100011101001011110111101011 ,
b100100011101001011110111101011 +
b1001 "
b1001 !
b11000101011011011100011110000000 &
b11000101011011011100011110000000 %
b10000 $
b10000 #
b1010110101010110001110010101111 (
b1010110101010110001110010101111 '
#151000000000
0/
#151500000000
1/
b100100011101001011110111101011 I
0.
0-
b10100 "
b10100 !
b0 &
b0 %
b1111 $
b1111 #
b110001100010100010101100000110 (
b110001100010100010101100000110 '
#152000000000
0/
#152500000000
1/
b10000 *
b10000 )
b1111011011000100100110101011010 ,
b1111011011000100100110101011010 +
1.
1-
b111 "
b111 !
b1001011111001110000011101010010 &
b1001011111001110000011101010010 %
b110 $
b110 #
b10011000011001000011111100001101 (
b10011000011001000011111100001101 '
#153000000000
0/
#153500000000
1/
b1111011011000100100110101011010 A
b11111 *
b11111 )
b1000001100110100100111000000111 ,
b1000001100110100100111000000111 +
b11 "
b11 !
b11000101111001001001101111001111 &
b11000101111001001001101111001111 %
b1100 $
b1100 #
b11101110110111100101110110011000 (
b11101110110111100101110110011000 '
#154000000000
0/
#154500000000
1/
b1000001100110100100111000000111 P
b11000 *
b11000 )
b10101011111011110101010010111001 ,
b10101011111011110101010010111001 +
b10001 "
b10001 !
b11100010001001010010011001110001 &
b11100010001001010010011001110001 %
b10110 $
b10110 #
b110010011100000000111000110010 (
b110010011100000000111000110010 '
#155000000000
0/
#155500000000
1/
b10101011111011110101010010111001 I
b1101 *
b1101 )
b110001101111100110000100011001 ,
b110001101111100110000100011001 +
b1000 "
b1000 !
b10101110011011001001011000010111 &
b10101110011011001001011000010111 %
b1100 $
b1100 #
b11101110110111100101110110011000 (
b11101110110111100101110110011000 '
#156000000000
0/
#156500000000
1/
b110001101111100110000100011001 >
0.
0-
b10 "
b10 !
b1100011100111010011000111110011 &
b1100011100111010011000111110011 %
b10111 $
b10111 #
b11100010110110100111111101010100 (
b11100010110110100111111101010100 '
#157000000000
0/
#157500000000
1/
b1 "
b1 !
b1111100101111011101011010011110 &
b1111100101111011101011010011110 %
#158000000000
0/
#158500000000
1/
b100 *
b100 )
b10111010000011100000101000110011 ,
b10111010000011100000101000110011 +
1.
1-
b11111 "
b11111 !
b1000001100110100100111000000111 &
b1000001100110100100111000000111 %
b1110 $
b1110 #
b10011110100100010111010111011 (
b10011110100100010111010111011 '
#159000000000
0/
