timer.vcd
$comment Generated by Amaranth $end
$date 2025-11-10 17:59:16.865380 $end
$timescale 1 fs $end
$scope module bench $end
$scope module top $end
$var wire 1 ! clk $end
$var wire 1 " rst $end
$var wire 1 # en $end
$var wire 5 $ counter $end
$var wire 1 % flag $end
$upscope $end
$upscope $end
$enddefinitions $end
#0
$dumpvars
0!
0"
0#
b0 $
0%
$end
#50000000000000
1!
#100000000000000
0!
#150000000000000
1!
#200000000000000
0!
#250000000000000
1!
#300000000000000
0!
#350000000000000
1!
#400000000000000
0!
#450000000000000
1!
#500000000000000
0!
#550000000000000
1!
#600000000000000
0!
#650000000000000
1!
#700000000000000
0!
#750000000000000
1!
#800000000000000
0!
#850000000000000
1!
#900000000000000
0!
#950000000000000
1!
#1000000000000000
0!
#1050000000000000
1!
#1100000000000000
0!
#1150000000000000
1!
#1200000000000000
0!
#1250000000000000
1!
#1300000000000000
0!
#1350000000000000
1!
#1400000000000000
0!
#1450000000000000
1!
#1500000000000000
0!
#1550000000000000
1!
#1600000000000000
0!
#1650000000000000
1!
#1700000000000000
0!
#1750000000000000
1!
#1800000000000000
0!
#1850000000000000
1!
#1900000000000000
0!
#1950000000000000
1!
#2000000000000000
0!
#2050000000000000
1!
#2100000000000000
0!
#2150000000000000
1!
#2200000000000000
0!
#2250000000000000
1!
#2300000000000000
0!
#2350000000000000
1!
#2400000000000000
0!
#2450000000000000
1!
1#
#2500000000000000
0!
#2550000000000000
1!
b1 $
#2600000000000000
0!
#2650000000000000
1!
b10 $
#2700000000000000
0!
#2750000000000000
1!
b11 $
#2800000000000000
0!
#2850000000000000
1!
b100 $
#2900000000000000
0!
#2950000000000000
1!
b101 $
#3000000000000000
0!
#3050000000000000
1!
b110 $
#3100000000000000
0!
#3150000000000000
1!
b111 $
#3200000000000000
0!
#3250000000000000
1!
b1000 $
#3300000000000000
0!
#3350000000000000
1!
b1001 $
#3400000000000000
0!
#3450000000000000
1!
b1010 $
#3500000000000000
0!
#3550000000000000
1!
b1011 $
#3600000000000000
0!
#3650000000000000
1!
b1100 $
#3700000000000000
0!
#3750000000000000
1!
b1101 $
#3800000000000000
0!
#3850000000000000
1!
b1110 $
#3900000000000000
0!
#3950000000000000
1!
b1111 $
#4000000000000000
0!
#4050000000000000
1!
b10000 $
#4100000000000000
0!
#4150000000000000
1!
b10001 $
#4200000000000000
0!
#4250000000000000
1!
b10010 $
#4300000000000000
0!
#4350000000000000
1!
b10011 $
#4400000000000000
0!
#4450000000000000
1!
b10100 $
1%
0#
0%
#4500000000000000
0!
#4550000000000000
1!
b0 $
